…
# Join with LC class via an inner_join (where new join_id == ID from terra)
poly_set_vals <- inner_join(poly_set, poly_set_vals, join_by(join_id == ID)) %>%
  st_drop_geometry()
```

Each row of `poly_set_vals` corresponds to one pixel of the Landsat
image.

``` r
poly_set_vals
```

    ## # A tibble: 24,833 × 9
    ## # Groups:   lc_class [7]
    ##    join_id lc_class         set        blue  green    red   nir  swir1  swir2
    ##  *   <dbl> <fct>            <chr>     <dbl>  <dbl>  <dbl> <dbl>  <dbl>  <dbl>
    ##  1       1 Broadleaf Forest training 0.0152 0.0345 0.0251 0.246 0.117  0.0512
    ##  2       1 Broadleaf Forest training 0.0142 0.0324 0.0207 0.245 0.104  0.0438
    ##  3       1 Broadleaf Forest training 0.0139 0.0325 0.0207 0.232 0.0960 0.0410
    ##  4       1 Broadleaf Forest training 0.0146 0.0331 0.0241 0.221 0.116  0.0529
    ##  5       1 Broadleaf Forest training 0.0146 0.0329 0.0213 0.231 0.100  0.0437
    ##  6       1 Broadleaf Forest training 0.0142 0.0339 0.0222 0.244 0.113  0.0492
    ##  7       2 Broadleaf Forest training 0.0236 0.0414 0.0259 0.420 0.171  0.0669
    ##  8       2 Broadleaf Forest training 0.0232 0.0416 0.0266 0.376 0.162  0.0636
    ##  9       2 Broadleaf Forest training 0.0224 0.0411 0.0256 0.384 0.152  0.0616
    ## 10       2 Broadleaf Forest training 0.0214 0.0411 0.0251 0.350 0.145  0.0571
    ## # ℹ 24,823 more rows
…
We can pivot the data from a wide to long format

``` r
poly_set_vals_long <- pivot_longer(poly_set_vals,
                                   blue:swir2, 
                                   names_to = "band", 
                                   values_to = "reflectance")

poly_set_vals_long
```

    ## # A tibble: 148,998 × 5
    ## # Groups:   lc_class [7]
    ##    join_id lc_class         set      band  reflectance
    ##      <dbl> <fct>            <chr>    <chr>       <dbl>
    ##  1       1 Broadleaf Forest training blue       0.0152
    ##  2       1 Broadleaf Forest training green      0.0345
    ##  3       1 Broadleaf Forest training red        0.0251
    ##  4       1 Broadleaf Forest training nir        0.246 
    ##  5       1 Broadleaf Forest training swir1      0.117 
    ##  6       1 Broadleaf Forest training swir2      0.0512
    ##  7       1 Broadleaf Forest training blue       0.0142
    ##  8       1 Broadleaf Forest training green      0.0324
    ##  9       1 Broadleaf Forest training red        0.0207
    ## 10       1 Broadleaf Forest training nir        0.245 
    ## # ℹ 148,988 more rows
…
    ## `summarise()` has grouped output by 'lc_class'. You can override using the
    ## `.groups` argument.

``` r
spectral_sign
```

    ## # A tibble: 42 × 5
    ## # Groups:   lc_class [7]
    ##    lc_class          band  r_mean   r_q05  r_q95
    ##    <fct>             <chr>  <dbl>   <dbl>  <dbl>
    ##  1 Broadleaf Forest  blue  0.0179 0.0126  0.0256
    ##  2 Broadleaf Forest  green 0.0367 0.0284  0.0447
    ##  3 Broadleaf Forest  nir   0.294  0.232   0.385 
    ##  4 Broadleaf Forest  red   0.0233 0.0162  0.0315
    ##  5 Broadleaf Forest  swir1 0.117  0.0815  0.162 
    ##  6 Broadleaf Forest  swir2 0.0489 0.0317  0.0703
    ##  7 Coniferous Forest blue  0.0118 0.00787 0.0219
    ##  8 Coniferous Forest green 0.0277 0.0215  0.0389
    ##  9 Coniferous Forest nir   0.236  0.162   0.354 
    ## 10 Coniferous Forest red   0.0165 0.0110  0.0261
    ## # ℹ 32 more rows
…
